{
	"name": "aquinas-www",
	"vcpus": 1,
	"memory": 1024,
	"package_install": [
		"block-mount",
		"freifunk-watchdog",
		"libcap-bin",
		"rsync",
		"shadow-useradd",
		"sudo",
		"syslog-ng",
		"zoneinfo-core",
		"zoneinfo-northamerica"
	],
	"package_remove": [
		"dnsmasq",
		"kmod-ppp",
		"kmod-pppoe",
		"kmod-pppox",
		"kmod-r8169",
		"logd",
		"luci",
		"luci-app-firewall",
		"luci-base",
		"luci-lib-ip",
		"luci-lib-nixio",
		"luci-proto-ipv6",
		"luci-proto-ppp",
		"luci-theme-bootstrap",
		"mtd",
		"odhcpd-ipv6only",
		"ppp",
		"ppp-mod-pppoe",
		"r8169-firmware",
		"uhttpd",
		"uhttpd-mod-ubus"
	]
}
